%YAML 1.1
%TAG !u! tag:unity3d.com,2011:
--- !u!29 &1
OcclusionCullingSettings:
  m_ObjectHideFlags: 0
  serializedVersion: 2
  m_OcclusionBakeSettings:
    smallestOccluder: 5
    smallestHole: 0.25
    backfaceThreshold: 100
  m_SceneGUID: 00000000000000000000000000000000
  m_OcclusionCullingData: {fileID: 0}
--- !u!104 &2
RenderSettings:
  m_ObjectHideFlags: 0
  serializedVersion: 9
  m_Fog: 0
  m_FogColor: {r: 0.5, g: 0.5, b: 0.5, a: 1}
  m_FogMode: 3
  m_FogDensity: 0.01
  m_LinearFogStart: 0
  m_LinearFogEnd: 300
  m_AmbientSkyColor: {r: 0.212, g: 0.227, b: 0.259, a: 1}
  m_AmbientEquatorColor: {r: 0.114, g: 0.125, b: 0.133, a: 1}
  m_AmbientGroundColor: {r: 0.047, g: 0.043, b: 0.035, a: 1}
  m_AmbientIntensity: 1
  m_AmbientMode: 3
  m_SubtractiveShadowColor: {r: 0.42, g: 0.478, b: 0.627, a: 1}
  m_SkyboxMaterial: {fileID: 0}
  m_HaloStrength: 0.5
  m_FlareStrength: 1
  m_FlareFadeSpeed: 3
  m_HaloTexture: {fileID: 0}
  m_SpotCookie: {fileID: 10001, guid: 0000000000000000e000000000000000, type: 0}
  m_DefaultReflectionMode: 0
  m_DefaultReflectionResolution: 128
  m_ReflectionBounces: 1
  m_ReflectionIntensity: 1
  m_CustomReflection: {fileID: 0}
  m_Sun: {fileID: 0}
  m_IndirectSpecularColor: {r: 0, g: 0, b: 0, a: 1}
  m_UseRadianceAmbientProbe: 0
--- !u!157 &3
LightmapSettings:
  m_ObjectHideFlags: 0
  serializedVersion: 11
  m_GIWorkflowMode: 1
  m_GISettings:
    serializedVersion: 2
    m_BounceScale: 1
    m_IndirectOutputScale: 1
    m_AlbedoBoost: 1
    m_EnvironmentLightingMode: 0
    m_EnableBakedLightmaps: 0
    m_EnableRealtimeLightmaps: 0
  m_LightmapEditorSettings:
    serializedVersion: 10
    m_Resolution: 2
    m_BakeResolution: 40
    m_AtlasSize: 1024
    m_AO: 0
    m_AOMaxDistance: 1
    m_CompAOExponent: 1
    m_CompAOExponentDirect: 0
    m_Padding: 2
    m_LightmapParameters: {fileID: 0}
    m_LightmapsBakeMode: 1
    m_TextureCompression: 1
    m_FinalGather: 0
    m_FinalGatherFiltering: 1
    m_FinalGatherRayCount: 256
    m_ReflectionCompression: 2
    m_MixedBakeMode: 2
    m_BakeBackend: 1
    m_PVRSampling: 1
    m_PVRDirectSampleCount: 32
    m_PVRSampleCount: 500
    m_PVRBounces: 2
    m_PVRFilterTypeDirect: 0
    m_PVRFilterTypeIndirect: 0
    m_PVRFilterTypeAO: 0
    m_PVRFilteringMode: 1
    m_PVRCulling: 1
    m_PVRFilteringGaussRadiusDirect: 1
    m_PVRFilteringGaussRadiusIndirect: 5
    m_PVRFilteringGaussRadiusAO: 2
    m_PVRFilteringAtrousPositionSigmaDirect: 0.5
    m_PVRFilteringAtrousPositionSigmaIndirect: 2
    m_PVRFilteringAtrousPositionSigmaAO: 1
    m_ShowResolutionOverlay: 1
  m_LightingDataAsset: {fileID: 0}
  m_UseShadowmask: 1
--- !u!196 &4
NavMeshSettings:
  serializedVersion: 2
  m_ObjectHideFlags: 0
  m_BuildSettings:
    serializedVersion: 2
    agentTypeID: 0
    agentRadius: 0.5
    agentHeight: 2
    agentSlope: 45
    agentClimb: 0.4
    ledgeDropHeight: 0
    maxJumpAcrossDistance: 0
    minRegionArea: 2
    manualCellSize: 0
    cellSize: 0.16666667
    manualTileSize: 0
    tileSize: 256
    accuratePlacement: 0
    debug:
      m_Flags: 0
  m_NavMeshData: {fileID: 0}
--- !u!1001 &162600964
PrefabInstance:
  m_ObjectHideFlags: 0
  serializedVersion: 2
  m_Modification:
    m_TransformParent: {fileID: 0}
    m_Modifications:
    - target: {fileID: 5350891459865436264, guid: d4ce5a3360f2ea944baff3b356e1a2bc,
        type: 3}
      propertyPath: m_Name
      value: HoleComplete (3)
      objectReference: {fileID: 0}
    - target: {fileID: 5279628199099811694, guid: d4ce5a3360f2ea944baff3b356e1a2bc,
        type: 3}
      propertyPath: m_LocalPosition.x
      value: 0
      objectReference: {fileID: 0}
    - target: {fileID: 5279628199099811694, guid: d4ce5a3360f2ea944baff3b356e1a2bc,
        type: 3}
      propertyPath: m_LocalPosition.y
      value: 2
      objectReference: {fileID: 0}
    - target: {fileID: 5279628199099811694, guid: d4ce5a3360f2ea944baff3b356e1a2bc,
        type: 3}
      propertyPath: m_LocalPosition.z
      value: 0
      objectReference: {fileID: 0}
    - target: {fileID: 5279628199099811694, guid: d4ce5a3360f2ea944baff3b356e1a2bc,
        type: 3}
      propertyPath: m_LocalRotation.x
      value: -0
      objectReference: {fileID: 0}
    - target: {fileID: 5279628199099811694, guid: d4ce5a3360f2ea944baff3b356e1a2bc,
        type: 3}
      propertyPath: m_LocalRotation.y
      value: -0
      objectReference: {fileID: 0}
    - target: {fileID: 5279628199099811694, guid: d4ce5a3360f2ea944baff3b356e1a2bc,
        type: 3}
      propertyPath: m_LocalRotation.z
      value: -0
      objectReference: {fileID: 0}
    - target: {fileID: 5279628199099811694, guid: d4ce5a3360f2ea944baff3b356e1a2bc,
        type: 3}
      propertyPath: m_LocalRotation.w
      value: 1
      objectReference: {fileID: 0}
    - target: {fileID: 5279628199099811694, guid: d4ce5a3360f2ea944baff3b356e1a2bc,
        type: 3}
      propertyPath: m_RootOrder
      value: 4
      objectReference: {fileID: 0}
    - target: {fileID: 5279628199099811694, guid: d4ce5a3360f2ea944baff3b356e1a2bc,
        type: 3}
      propertyPath: m_LocalEulerAnglesHint.x
      value: 0
      objectReference: {fileID: 0}
    - target: {fileID: 5279628199099811694, guid: d4ce5a3360f2ea944baff3b356e1a2bc,
        type: 3}
      propertyPath: m_LocalEulerAnglesHint.y
      value: 0
      objectReference: {fileID: 0}
    - target: {fileID: 5279628199099811694, guid: d4ce5a3360f2ea944baff3b356e1a2bc,
        type: 3}
      propertyPath: m_LocalEulerAnglesHint.z
      value: 0
      objectReference: {fileID: 0}
    - target: {fileID: 4977064713511516559, guid: d4ce5a3360f2ea944baff3b356e1a2bc,
        type: 3}
      propertyPath: m_LocalPosition.x
      value: 0
      objectReference: {fileID: 0}
    - target: {fileID: 4977064713511516559, guid: d4ce5a3360f2ea944baff3b356e1a2bc,
        type: 3}
      propertyPath: m_LocalPosition.y
      value: 0
      objectReference: {fileID: 0}
    - target: {fileID: 4977064713511516559, guid: d4ce5a3360f2ea944baff3b356e1a2bc,
        type: 3}
      propertyPath: m_LocalPosition.z
      value: 0
      objectReference: {fileID: 0}
    - target: {fileID: 4789341586180607118, guid: d4ce5a3360f2ea944baff3b356e1a2bc,
        type: 3}
      propertyPath: m_LocalPosition.x
      value: 0
      objectReference: {fileID: 0}
    - target: {fileID: 4789341586180607118, guid: d4ce5a3360f2ea944baff3b356e1a2bc,
        type: 3}
      propertyPath: m_LocalPosition.y
      value: 0.441
      objectReference: {fileID: 0}
    - target: {fileID: 4789341586180607118, guid: d4ce5a3360f2ea944baff3b356e1a2bc,
        type: 3}
      propertyPath: m_LocalPosition.z
      value: 0
      objectReference: {fileID: 0}
    m_RemovedComponents: []
  m_SourcePrefab: {fileID: 100100000, guid: d4ce5a3360f2ea944baff3b356e1a2bc, type: 3}
--- !u!1001 &271019578
PrefabInstance:
  m_ObjectHideFlags: 0
  serializedVersion: 2
  m_Modification:
    m_TransformParent: {fileID: 0}
    m_Modifications:
    - target: {fileID: 5350891459865436264, guid: d4ce5a3360f2ea944baff3b356e1a2bc,
        type: 3}
      propertyPath: m_Name
      value: HoleComplete (5)
      objectReference: {fileID: 0}
    - target: {fileID: 5279628199099811694, guid: d4ce5a3360f2ea944baff3b356e1a2bc,
        type: 3}
      propertyPath: m_LocalPosition.x
      value: 8
      objectReference: {fileID: 0}
    - target: {fileID: 5279628199099811694, guid: d4ce5a3360f2ea944baff3b356e1a2bc,
        type: 3}
      propertyPath: m_LocalPosition.y
      value: 0
      objectReference: {fileID: 0}
    - target: {fileID: 5279628199099811694, guid: d4ce5a3360f2ea944baff3b356e1a2bc,
        type: 3}
      propertyPath: m_LocalPosition.z
      value: 0
      objectReference: {fileID: 0}
    - target: {fileID: 5279628199099811694, guid: d4ce5a3360f2ea944baff3b356e1a2bc,
        type: 3}
      propertyPath: m_LocalRotation.x
      value: -0
      objectReference: {fileID: 0}
    - target: {fileID: 5279628199099811694, guid: d4ce5a3360f2ea944baff3b356e1a2bc,
        type: 3}
      propertyPath: m_LocalRotation.y
      value: -0
      objectReference: {fileID: 0}
    - target: {fileID: 5279628199099811694, guid: d4ce5a3360f2ea944baff3b356e1a2bc,
        type: 3}
      propertyPath: m_LocalRotation.z
      value: -0
      objectReference: {fileID: 0}
    - target: {fileID: 5279628199099811694, guid: d4ce5a3360f2ea944baff3b356e1a2bc,
        type: 3}
      propertyPath: m_LocalRotation.w
      value: 1
      objectReference: {fileID: 0}
    - target: {fileID: 5279628199099811694, guid: d4ce5a3360f2ea944baff3b356e1a2bc,
        type: 3}
      propertyPath: m_RootOrder
      value: 6
      objectReference: {fileID: 0}
    - target: {fileID: 5279628199099811694, guid: d4ce5a3360f2ea944baff3b356e1a2bc,
        type: 3}
      propertyPath: m_LocalEulerAnglesHint.x
      value: 0
      objectReference: {fileID: 0}
    - target: {fileID: 5279628199099811694, guid: d4ce5a3360f2ea944baff3b356e1a2bc,
        type: 3}
      propertyPath: m_LocalEulerAnglesHint.y
      value: 0
      objectReference: {fileID: 0}
    - target: {fileID: 5279628199099811694, guid: d4ce5a3360f2ea944baff3b356e1a2bc,
        type: 3}
      propertyPath: m_LocalEulerAnglesHint.z
      value: 0
      objectReference: {fileID: 0}
    - target: {fileID: 4977064713511516559, guid: d4ce5a3360f2ea944baff3b356e1a2bc,
        type: 3}
      propertyPath: m_LocalPosition.x
      value: 0
      objectReference: {fileID: 0}
    - target: {fileID: 4977064713511516559, guid: d4ce5a3360f2ea944baff3b356e1a2bc,
        type: 3}
      propertyPath: m_LocalPosition.y
      value: 0
      objectReference: {fileID: 0}
    - target: {fileID: 4977064713511516559, guid: d4ce5a3360f2ea944baff3b356e1a2bc,
        type: 3}
      propertyPath: m_LocalPosition.z
      value: 0
      objectReference: {fileID: 0}
    - target: {fileID: 4789341586180607118, guid: d4ce5a3360f2ea944baff3b356e1a2bc,
        type: 3}
      propertyPath: m_LocalPosition.x
      value: 0
      objectReference: {fileID: 0}
    - target: {fileID: 4789341586180607118, guid: d4ce5a3360f2ea944baff3b356e1a2bc,
        type: 3}
      propertyPath: m_LocalPosition.y
      value: 0.441
      objectReference: {fileID: 0}
    - target: {fileID: 4789341586180607118, guid: d4ce5a3360f2ea944baff3b356e1a2bc,
        type: 3}
      propertyPath: m_LocalPosition.z
      value: 0
      objectReference: {fileID: 0}
    m_RemovedComponents: []
  m_SourcePrefab: {fileID: 100100000, guid: d4ce5a3360f2ea944baff3b356e1a2bc, type: 3}
--- !u!1 &466085943
GameObject:
  m_ObjectHideFlags: 0
  m_CorrespondingSourceObject: {fileID: 0}
  m_PrefabInstance: {fileID: 0}
  m_PrefabAsset: {fileID: 0}
  serializedVersion: 6
  m_Component:
  - component: {fileID: 466085946}
  - component: {fileID: 466085945}
  - component: {fileID: 466085944}
  m_Layer: 0
  m_Name: EventSystem
  m_TagString: Untagged
  m_Icon: {fileID: 0}
  m_NavMeshLayer: 0
  m_StaticEditorFlags: 0
  m_IsActive: 1
--- !u!114 &466085944
MonoBehaviour:
  m_ObjectHideFlags: 0
  m_CorrespondingSourceObject: {fileID: 0}
  m_PrefabInstance: {fileID: 0}
  m_PrefabAsset: {fileID: 0}
  m_GameObject: {fileID: 466085943}
  m_Enabled: 1
  m_EditorHideFlags: 0
  m_Script: {fileID: 1077351063, guid: f70555f144d8491a825f0804e09c671c, type: 3}
  m_Name: 
  m_EditorClassIdentifier: 
  m_HorizontalAxis: Horizontal
  m_VerticalAxis: Vertical
  m_SubmitButton: Submit
  m_CancelButton: Cancel
  m_InputActionsPerSecond: 10
  m_RepeatDelay: 0.5
  m_ForceModuleActive: 0
--- !u!114 &466085945
MonoBehaviour:
  m_ObjectHideFlags: 0
  m_CorrespondingSourceObject: {fileID: 0}
  m_PrefabInstance: {fileID: 0}
  m_PrefabAsset: {fileID: 0}
  m_GameObject: {fileID: 466085943}
  m_Enabled: 1
  m_EditorHideFlags: 0
  m_Script: {fileID: -619905303, guid: f70555f144d8491a825f0804e09c671c, type: 3}
  m_Name: 
  m_EditorClassIdentifier: 
  m_FirstSelected: {fileID: 0}
  m_sendNavigationEvents: 1
  m_DragThreshold: 10
--- !u!4 &466085946
Transform:
  m_ObjectHideFlags: 0
  m_CorrespondingSourceObject: {fileID: 0}
  m_PrefabInstance: {fileID: 0}
  m_PrefabAsset: {fileID: 0}
  m_GameObject: {fileID: 466085943}
  m_LocalRotation: {x: 0, y: 0, z: 0, w: 1}
  m_LocalPosition: {x: 0, y: 0, z: 0}
  m_LocalScale: {x: 1, y: 1, z: 1}
  m_Children: []
  m_Father: {fileID: 0}
  m_RootOrder: 10
  m_LocalEulerAnglesHint: {x: 0, y: 0, z: 0}
--- !u!1001 &731433425
PrefabInstance:
  m_ObjectHideFlags: 0
  serializedVersion: 2
  m_Modification:
    m_TransformParent: {fileID: 0}
    m_Modifications:
    - target: {fileID: 5350891459865436264, guid: d4ce5a3360f2ea944baff3b356e1a2bc,
        type: 3}
      propertyPath: m_Name
      value: HoleComplete (6)
      objectReference: {fileID: 0}
    - target: {fileID: 5279628199099811694, guid: d4ce5a3360f2ea944baff3b356e1a2bc,
        type: 3}
      propertyPath: m_LocalPosition.x
      value: 4
      objectReference: {fileID: 0}
    - target: {fileID: 5279628199099811694, guid: d4ce5a3360f2ea944baff3b356e1a2bc,
        type: 3}
      propertyPath: m_LocalPosition.y
      value: 2
      objectReference: {fileID: 0}
    - target: {fileID: 5279628199099811694, guid: d4ce5a3360f2ea944baff3b356e1a2bc,
        type: 3}
      propertyPath: m_LocalPosition.z
      value: 0
      objectReference: {fileID: 0}
    - target: {fileID: 5279628199099811694, guid: d4ce5a3360f2ea944baff3b356e1a2bc,
        type: 3}
      propertyPath: m_LocalRotation.x
      value: -0
      objectReference: {fileID: 0}
    - target: {fileID: 5279628199099811694, guid: d4ce5a3360f2ea944baff3b356e1a2bc,
        type: 3}
      propertyPath: m_LocalRotation.y
      value: -0
      objectReference: {fileID: 0}
    - target: {fileID: 5279628199099811694, guid: d4ce5a3360f2ea944baff3b356e1a2bc,
        type: 3}
      propertyPath: m_LocalRotation.z
      value: -0
      objectReference: {fileID: 0}
    - target: {fileID: 5279628199099811694, guid: d4ce5a3360f2ea944baff3b356e1a2bc,
        type: 3}
      propertyPath: m_LocalRotation.w
      value: 1
      objectReference: {fileID: 0}
    - target: {fileID: 5279628199099811694, guid: d4ce5a3360f2ea944baff3b356e1a2bc,
        type: 3}
      propertyPath: m_RootOrder
      value: 7
      objectReference: {fileID: 0}
    - target: {fileID: 5279628199099811694, guid: d4ce5a3360f2ea944baff3b356e1a2bc,
        type: 3}
      propertyPath: m_LocalEulerAnglesHint.x
      value: 0
      objectReference: {fileID: 0}
    - target: {fileID: 5279628199099811694, guid: d4ce5a3360f2ea944baff3b356e1a2bc,
        type: 3}
      propertyPath: m_LocalEulerAnglesHint.y
      value: 0
      objectReference: {fileID: 0}
    - target: {fileID: 5279628199099811694, guid: d4ce5a3360f2ea944baff3b356e1a2bc,
        type: 3}
      propertyPath: m_LocalEulerAnglesHint.z
      value: 0
      objectReference: {fileID: 0}
    - target: {fileID: 4977064713511516559, guid: d4ce5a3360f2ea944baff3b356e1a2bc,
        type: 3}
      propertyPath: m_LocalPosition.x
      value: 0
      objectReference: {fileID: 0}
    - target: {fileID: 4977064713511516559, guid: d4ce5a3360f2ea944baff3b356e1a2bc,
        type: 3}
      propertyPath: m_LocalPosition.y
      value: 0
      objectReference: {fileID: 0}
    - target: {fileID: 4977064713511516559, guid: d4ce5a3360f2ea944baff3b356e1a2bc,
        type: 3}
      propertyPath: m_LocalPosition.z
      value: 0
      objectReference: {fileID: 0}
    - target: {fileID: 4789341586180607118, guid: d4ce5a3360f2ea944baff3b356e1a2bc,
        type: 3}
      propertyPath: m_LocalPosition.x
      value: 0
      objectReference: {fileID: 0}
    - target: {fileID: 4789341586180607118, guid: d4ce5a3360f2ea944baff3b356e1a2bc,
        type: 3}
      propertyPath: m_LocalPosition.y
      value: 0.441
      objectReference: {fileID: 0}
    - target: {fileID: 4789341586180607118, guid: d4ce5a3360f2ea944baff3b356e1a2bc,
        type: 3}
      propertyPath: m_LocalPosition.z
      value: 0
      objectReference: {fileID: 0}
    m_RemovedComponents: []
  m_SourcePrefab: {fileID: 100100000, guid: d4ce5a3360f2ea944baff3b356e1a2bc, type: 3}
--- !u!1001 &766119820
PrefabInstance:
  m_ObjectHideFlags: 0
  serializedVersion: 2
  m_Modification:
    m_TransformParent: {fileID: 0}
    m_Modifications:
    - target: {fileID: 8696515107575268547, guid: 5c1645cbc0fae874a9dc9aab0d4c0213,
        type: 3}
      propertyPath: m_Name
      value: LevelManager
      objectReference: {fileID: 0}
    - target: {fileID: 2861721007607132280, guid: 5c1645cbc0fae874a9dc9aab0d4c0213,
        type: 3}
      propertyPath: m_LocalPosition.x
      value: -0.09924023
      objectReference: {fileID: 0}
    - target: {fileID: 2861721007607132280, guid: 5c1645cbc0fae874a9dc9aab0d4c0213,
        type: 3}
      propertyPath: m_LocalPosition.y
      value: 0.075236306
      objectReference: {fileID: 0}
    - target: {fileID: 2861721007607132280, guid: 5c1645cbc0fae874a9dc9aab0d4c0213,
        type: 3}
      propertyPath: m_LocalPosition.z
      value: 51.79297
      objectReference: {fileID: 0}
    - target: {fileID: 2861721007607132280, guid: 5c1645cbc0fae874a9dc9aab0d4c0213,
        type: 3}
      propertyPath: m_LocalRotation.x
      value: 0
      objectReference: {fileID: 0}
    - target: {fileID: 2861721007607132280, guid: 5c1645cbc0fae874a9dc9aab0d4c0213,
        type: 3}
      propertyPath: m_LocalRotation.y
      value: 0
      objectReference: {fileID: 0}
    - target: {fileID: 2861721007607132280, guid: 5c1645cbc0fae874a9dc9aab0d4c0213,
        type: 3}
      propertyPath: m_LocalRotation.z
      value: 0
      objectReference: {fileID: 0}
    - target: {fileID: 2861721007607132280, guid: 5c1645cbc0fae874a9dc9aab0d4c0213,
        type: 3}
      propertyPath: m_LocalRotation.w
      value: 1
      objectReference: {fileID: 0}
    - target: {fileID: 2861721007607132280, guid: 5c1645cbc0fae874a9dc9aab0d4c0213,
        type: 3}
      propertyPath: m_RootOrder
      value: 11
      objectReference: {fileID: 0}
    - target: {fileID: 2861721007607132280, guid: 5c1645cbc0fae874a9dc9aab0d4c0213,
        type: 3}
      propertyPath: m_LocalEulerAnglesHint.x
      value: 0
      objectReference: {fileID: 0}
    - target: {fileID: 2861721007607132280, guid: 5c1645cbc0fae874a9dc9aab0d4c0213,
        type: 3}
      propertyPath: m_LocalEulerAnglesHint.y
      value: 0
      objectReference: {fileID: 0}
    - target: {fileID: 2861721007607132280, guid: 5c1645cbc0fae874a9dc9aab0d4c0213,
        type: 3}
      propertyPath: m_LocalEulerAnglesHint.z
      value: 0
      objectReference: {fileID: 0}
    m_RemovedComponents: []
  m_SourcePrefab: {fileID: 100100000, guid: 5c1645cbc0fae874a9dc9aab0d4c0213, type: 3}
--- !u!1001 &943110421
PrefabInstance:
  m_ObjectHideFlags: 0
  serializedVersion: 2
  m_Modification:
    m_TransformParent: {fileID: 0}
    m_Modifications:
    - target: {fileID: 5350891459865436264, guid: d4ce5a3360f2ea944baff3b356e1a2bc,
        type: 3}
      propertyPath: m_Name
      value: HoleComplete (3)
      objectReference: {fileID: 0}
    - target: {fileID: 5279628199099811694, guid: d4ce5a3360f2ea944baff3b356e1a2bc,
        type: 3}
      propertyPath: m_LocalPosition.x
      value: 0
      objectReference: {fileID: 0}
    - target: {fileID: 5279628199099811694, guid: d4ce5a3360f2ea944baff3b356e1a2bc,
        type: 3}
      propertyPath: m_LocalPosition.y
      value: 0
      objectReference: {fileID: 0}
    - target: {fileID: 5279628199099811694, guid: d4ce5a3360f2ea944baff3b356e1a2bc,
        type: 3}
      propertyPath: m_LocalPosition.z
      value: 0
      objectReference: {fileID: 0}
    - target: {fileID: 5279628199099811694, guid: d4ce5a3360f2ea944baff3b356e1a2bc,
        type: 3}
      propertyPath: m_LocalRotation.x
      value: -0
      objectReference: {fileID: 0}
    - target: {fileID: 5279628199099811694, guid: d4ce5a3360f2ea944baff3b356e1a2bc,
        type: 3}
      propertyPath: m_LocalRotation.y
      value: -0
      objectReference: {fileID: 0}
    - target: {fileID: 5279628199099811694, guid: d4ce5a3360f2ea944baff3b356e1a2bc,
        type: 3}
      propertyPath: m_LocalRotation.z
      value: -0
      objectReference: {fileID: 0}
    - target: {fileID: 5279628199099811694, guid: d4ce5a3360f2ea944baff3b356e1a2bc,
        type: 3}
      propertyPath: m_LocalRotation.w
      value: 1
      objectReference: {fileID: 0}
    - target: {fileID: 5279628199099811694, guid: d4ce5a3360f2ea944baff3b356e1a2bc,
        type: 3}
      propertyPath: m_RootOrder
      value: 5
      objectReference: {fileID: 0}
    - target: {fileID: 5279628199099811694, guid: d4ce5a3360f2ea944baff3b356e1a2bc,
        type: 3}
      propertyPath: m_LocalEulerAnglesHint.x
      value: 0
      objectReference: {fileID: 0}
    - target: {fileID: 5279628199099811694, guid: d4ce5a3360f2ea944baff3b356e1a2bc,
        type: 3}
      propertyPath: m_LocalEulerAnglesHint.y
      value: 0
      objectReference: {fileID: 0}
    - target: {fileID: 5279628199099811694, guid: d4ce5a3360f2ea944baff3b356e1a2bc,
        type: 3}
      propertyPath: m_LocalEulerAnglesHint.z
      value: 0
      objectReference: {fileID: 0}
    - target: {fileID: 4977064713511516559, guid: d4ce5a3360f2ea944baff3b356e1a2bc,
        type: 3}
      propertyPath: m_LocalPosition.x
      value: 0
      objectReference: {fileID: 0}
    - target: {fileID: 4977064713511516559, guid: d4ce5a3360f2ea944baff3b356e1a2bc,
        type: 3}
      propertyPath: m_LocalPosition.y
      value: 0
      objectReference: {fileID: 0}
    - target: {fileID: 4977064713511516559, guid: d4ce5a3360f2ea944baff3b356e1a2bc,
        type: 3}
      propertyPath: m_LocalPosition.z
      value: 0
      objectReference: {fileID: 0}
    - target: {fileID: 4789341586180607118, guid: d4ce5a3360f2ea944baff3b356e1a2bc,
        type: 3}
      propertyPath: m_LocalPosition.x
      value: 0
      objectReference: {fileID: 0}
    - target: {fileID: 4789341586180607118, guid: d4ce5a3360f2ea944baff3b356e1a2bc,
        type: 3}
      propertyPath: m_LocalPosition.y
      value: 0.441
      objectReference: {fileID: 0}
    - target: {fileID: 4789341586180607118, guid: d4ce5a3360f2ea944baff3b356e1a2bc,
        type: 3}
      propertyPath: m_LocalPosition.z
      value: 0
      objectReference: {fileID: 0}
    m_RemovedComponents: []
  m_SourcePrefab: {fileID: 100100000, guid: d4ce5a3360f2ea944baff3b356e1a2bc, type: 3}
--- !u!1 &974402257
GameObject:
  m_ObjectHideFlags: 0
  m_CorrespondingSourceObject: {fileID: 0}
  m_PrefabInstance: {fileID: 0}
  m_PrefabAsset: {fileID: 0}
  serializedVersion: 6
  m_Component:
  - component: {fileID: 974402260}
  - component: {fileID: 974402259}
  - component: {fileID: 974402258}
  - component: {fileID: 974402261}
  m_Layer: 0
  m_Name: Main Camera
  m_TagString: MainCamera
  m_Icon: {fileID: 0}
  m_NavMeshLayer: 0
  m_StaticEditorFlags: 0
  m_IsActive: 1
--- !u!81 &974402258
AudioListener:
  m_ObjectHideFlags: 0
  m_CorrespondingSourceObject: {fileID: 0}
  m_PrefabInstance: {fileID: 0}
  m_PrefabAsset: {fileID: 0}
  m_GameObject: {fileID: 974402257}
  m_Enabled: 1
--- !u!20 &974402259
Camera:
  m_ObjectHideFlags: 0
  m_CorrespondingSourceObject: {fileID: 0}
  m_PrefabInstance: {fileID: 0}
  m_PrefabAsset: {fileID: 0}
  m_GameObject: {fileID: 974402257}
  m_Enabled: 1
  serializedVersion: 2
  m_ClearFlags: 1
  m_BackGroundColor: {r: 0.44705883, g: 0.28235295, b: 0.003921569, a: 0}
  m_projectionMatrixMode: 1
  m_SensorSize: {x: 36, y: 24}
  m_LensShift: {x: 0, y: 0}
  m_GateFitMode: 2
  m_FocalLength: 50
  m_NormalizedViewPortRect:
    serializedVersion: 2
    x: 0
    y: 0
    width: 1
    height: 1
  near clip plane: 0.3
  far clip plane: 1000
  field of view: 60
  orthographic: 1
  orthographic size: 3
  m_Depth: -1
  m_CullingMask:
    serializedVersion: 2
    m_Bits: 4294967295
  m_RenderingPath: -1
  m_TargetTexture: {fileID: 0}
  m_TargetDisplay: 0
  m_TargetEye: 3
  m_HDR: 1
  m_AllowMSAA: 1
  m_AllowDynamicResolution: 0
  m_ForceIntoRT: 0
  m_OcclusionCulling: 1
  m_StereoConvergence: 10
  m_StereoSeparation: 0.022
--- !u!4 &974402260
Transform:
  m_ObjectHideFlags: 0
  m_CorrespondingSourceObject: {fileID: 0}
  m_PrefabInstance: {fileID: 0}
  m_PrefabAsset: {fileID: 0}
  m_GameObject: {fileID: 974402257}
  m_LocalRotation: {x: 0, y: 0, z: 0, w: 1}
  m_LocalPosition: {x: 4, y: 2.5, z: -10}
  m_LocalScale: {x: 1, y: 1, z: 1}
  m_Children: []
  m_Father: {fileID: 0}
  m_RootOrder: 0
  m_LocalEulerAnglesHint: {x: 0, y: 0, z: 0}
--- !u!114 &974402261
MonoBehaviour:
  m_ObjectHideFlags: 0
  m_CorrespondingSourceObject: {fileID: 0}
  m_PrefabInstance: {fileID: 0}
  m_PrefabAsset: {fileID: 0}
  m_GameObject: {fileID: 974402257}
  m_Enabled: 1
  m_EditorHideFlags: 0
  m_Script: {fileID: 11500000, guid: 4d6a6343db89c2a4d9d779b326ecc1c6, type: 3}
  m_Name: 
  m_EditorClassIdentifier: 
--- !u!1001 &1295585158
PrefabInstance:
  m_ObjectHideFlags: 0
  serializedVersion: 2
  m_Modification:
    m_TransformParent: {fileID: 0}
    m_Modifications:
    - target: {fileID: 5350891459865436264, guid: d4ce5a3360f2ea944baff3b356e1a2bc,
        type: 3}
      propertyPath: m_Name
      value: HoleComplete
      objectReference: {fileID: 0}
    - target: {fileID: 5279628199099811694, guid: d4ce5a3360f2ea944baff3b356e1a2bc,
        type: 3}
      propertyPath: m_LocalPosition.x
      value: 0
      objectReference: {fileID: 0}
    - target: {fileID: 5279628199099811694, guid: d4ce5a3360f2ea944baff3b356e1a2bc,
        type: 3}
      propertyPath: m_LocalPosition.y
      value: 4
      objectReference: {fileID: 0}
    - target: {fileID: 5279628199099811694, guid: d4ce5a3360f2ea944baff3b356e1a2bc,
        type: 3}
      propertyPath: m_LocalPosition.z
      value: 0
      objectReference: {fileID: 0}
    - target: {fileID: 5279628199099811694, guid: d4ce5a3360f2ea944baff3b356e1a2bc,
        type: 3}
      propertyPath: m_LocalRotation.x
      value: -0
      objectReference: {fileID: 0}
    - target: {fileID: 5279628199099811694, guid: d4ce5a3360f2ea944baff3b356e1a2bc,
        type: 3}
      propertyPath: m_LocalRotation.y
      value: -0
      objectReference: {fileID: 0}
    - target: {fileID: 5279628199099811694, guid: d4ce5a3360f2ea944baff3b356e1a2bc,
        type: 3}
      propertyPath: m_LocalRotation.z
      value: -0
      objectReference: {fileID: 0}
    - target: {fileID: 5279628199099811694, guid: d4ce5a3360f2ea944baff3b356e1a2bc,
        type: 3}
      propertyPath: m_LocalRotation.w
      value: 1
      objectReference: {fileID: 0}
    - target: {fileID: 5279628199099811694, guid: d4ce5a3360f2ea944baff3b356e1a2bc,
        type: 3}
      propertyPath: m_RootOrder
      value: 1
      objectReference: {fileID: 0}
    - target: {fileID: 5279628199099811694, guid: d4ce5a3360f2ea944baff3b356e1a2bc,
        type: 3}
      propertyPath: m_LocalEulerAnglesHint.x
      value: 0
      objectReference: {fileID: 0}
    - target: {fileID: 5279628199099811694, guid: d4ce5a3360f2ea944baff3b356e1a2bc,
        type: 3}
      propertyPath: m_LocalEulerAnglesHint.y
      value: 0
      objectReference: {fileID: 0}
    - target: {fileID: 5279628199099811694, guid: d4ce5a3360f2ea944baff3b356e1a2bc,
        type: 3}
      propertyPath: m_LocalEulerAnglesHint.z
      value: 0
      objectReference: {fileID: 0}
    - target: {fileID: 4977064713511516559, guid: d4ce5a3360f2ea944baff3b356e1a2bc,
        type: 3}
      propertyPath: m_LocalPosition.x
      value: 0
      objectReference: {fileID: 0}
    - target: {fileID: 4977064713511516559, guid: d4ce5a3360f2ea944baff3b356e1a2bc,
        type: 3}
      propertyPath: m_LocalPosition.y
      value: 0
      objectReference: {fileID: 0}
    - target: {fileID: 4977064713511516559, guid: d4ce5a3360f2ea944baff3b356e1a2bc,
        type: 3}
      propertyPath: m_LocalPosition.z
      value: 0
      objectReference: {fileID: 0}
    - target: {fileID: 4789341586180607118, guid: d4ce5a3360f2ea944baff3b356e1a2bc,
        type: 3}
      propertyPath: m_LocalPosition.x
      value: 0
      objectReference: {fileID: 0}
    - target: {fileID: 4789341586180607118, guid: d4ce5a3360f2ea944baff3b356e1a2bc,
        type: 3}
      propertyPath: m_LocalPosition.y
      value: 0.441
      objectReference: {fileID: 0}
    - target: {fileID: 4789341586180607118, guid: d4ce5a3360f2ea944baff3b356e1a2bc,
        type: 3}
      propertyPath: m_LocalPosition.z
      value: 0
      objectReference: {fileID: 0}
    m_RemovedComponents: []
  m_SourcePrefab: {fileID: 100100000, guid: d4ce5a3360f2ea944baff3b356e1a2bc, type: 3}
--- !u!1001 &1298119000
PrefabInstance:
  m_ObjectHideFlags: 0
  serializedVersion: 2
  m_Modification:
    m_TransformParent: {fileID: 0}
    m_Modifications:
    - target: {fileID: 5350891459865436264, guid: d4ce5a3360f2ea944baff3b356e1a2bc,
        type: 3}
      propertyPath: m_Name
      value: HoleComplete (2)
      objectReference: {fileID: 0}
    - target: {fileID: 5279628199099811694, guid: d4ce5a3360f2ea944baff3b356e1a2bc,
        type: 3}
      propertyPath: m_LocalPosition.x
      value: 8
      objectReference: {fileID: 0}
    - target: {fileID: 5279628199099811694, guid: d4ce5a3360f2ea944baff3b356e1a2bc,
        type: 3}
      propertyPath: m_LocalPosition.y
      value: 4
      objectReference: {fileID: 0}
    - target: {fileID: 5279628199099811694, guid: d4ce5a3360f2ea944baff3b356e1a2bc,
        type: 3}
      propertyPath: m_LocalPosition.z
      value: 0
      objectReference: {fileID: 0}
    - target: {fileID: 5279628199099811694, guid: d4ce5a3360f2ea944baff3b356e1a2bc,
        type: 3}
      propertyPath: m_LocalRotation.x
      value: -0
      objectReference: {fileID: 0}
    - target: {fileID: 5279628199099811694, guid: d4ce5a3360f2ea944baff3b356e1a2bc,
        type: 3}
      propertyPath: m_LocalRotation.y
      value: -0
      objectReference: {fileID: 0}
    - target: {fileID: 5279628199099811694, guid: d4ce5a3360f2ea944baff3b356e1a2bc,
        type: 3}
      propertyPath: m_LocalRotation.z
      value: -0
      objectReference: {fileID: 0}
    - target: {fileID: 5279628199099811694, guid: d4ce5a3360f2ea944baff3b356e1a2bc,
        type: 3}
      propertyPath: m_LocalRotation.w
      value: 1
      objectReference: {fileID: 0}
    - target: {fileID: 5279628199099811694, guid: d4ce5a3360f2ea944baff3b356e1a2bc,
        type: 3}
      propertyPath: m_RootOrder
      value: 3
      objectReference: {fileID: 0}
    - target: {fileID: 5279628199099811694, guid: d4ce5a3360f2ea944baff3b356e1a2bc,
        type: 3}
      propertyPath: m_LocalEulerAnglesHint.x
      value: 0
      objectReference: {fileID: 0}
    - target: {fileID: 5279628199099811694, guid: d4ce5a3360f2ea944baff3b356e1a2bc,
        type: 3}
      propertyPath: m_LocalEulerAnglesHint.y
      value: 0
      objectReference: {fileID: 0}
    - target: {fileID: 5279628199099811694, guid: d4ce5a3360f2ea944baff3b356e1a2bc,
        type: 3}
      propertyPath: m_LocalEulerAnglesHint.z
      value: 0
      objectReference: {fileID: 0}
    - target: {fileID: 4977064713511516559, guid: d4ce5a3360f2ea944baff3b356e1a2bc,
        type: 3}
      propertyPath: m_LocalPosition.x
      value: 0
      objectReference: {fileID: 0}
    - target: {fileID: 4977064713511516559, guid: d4ce5a3360f2ea944baff3b356e1a2bc,
        type: 3}
      propertyPath: m_LocalPosition.y
      value: 0
      objectReference: {fileID: 0}
    - target: {fileID: 4977064713511516559, guid: d4ce5a3360f2ea944baff3b356e1a2bc,
        type: 3}
      propertyPath: m_LocalPosition.z
      value: 0
      objectReference: {fileID: 0}
    - target: {fileID: 4789341586180607118, guid: d4ce5a3360f2ea944baff3b356e1a2bc,
        type: 3}
      propertyPath: m_LocalPosition.x
      value: 0
      objectReference: {fileID: 0}
    - target: {fileID: 4789341586180607118, guid: d4ce5a3360f2ea944baff3b356e1a2bc,
        type: 3}
      propertyPath: m_LocalPosition.y
      value: 0.441
      objectReference: {fileID: 0}
    - target: {fileID: 4789341586180607118, guid: d4ce5a3360f2ea944baff3b356e1a2bc,
        type: 3}
      propertyPath: m_LocalPosition.z
      value: 0
      objectReference: {fileID: 0}
    m_RemovedComponents: []
  m_SourcePrefab: {fileID: 100100000, guid: d4ce5a3360f2ea944baff3b356e1a2bc, type: 3}
--- !u!1001 &1547372328
PrefabInstance:
  m_ObjectHideFlags: 0
  serializedVersion: 2
  m_Modification:
    m_TransformParent: {fileID: 0}
    m_Modifications:
    - target: {fileID: 5350891459865436264, guid: d4ce5a3360f2ea944baff3b356e1a2bc,
        type: 3}
      propertyPath: m_Name
      value: HoleComplete (4)
      objectReference: {fileID: 0}
    - target: {fileID: 5279628199099811694, guid: d4ce5a3360f2ea944baff3b356e1a2bc,
        type: 3}
      propertyPath: m_LocalPosition.x
      value: 4
      objectReference: {fileID: 0}
    - target: {fileID: 5279628199099811694, guid: d4ce5a3360f2ea944baff3b356e1a2bc,
        type: 3}
      propertyPath: m_LocalPosition.y
      value: 0
      objectReference: {fileID: 0}
    - target: {fileID: 5279628199099811694, guid: d4ce5a3360f2ea944baff3b356e1a2bc,
        type: 3}
      propertyPath: m_LocalPosition.z
      value: 0
      objectReference: {fileID: 0}
    - target: {fileID: 5279628199099811694, guid: d4ce5a3360f2ea944baff3b356e1a2bc,
        type: 3}
      propertyPath: m_LocalRotation.x
      value: -0
      objectReference: {fileID: 0}
    - target: {fileID: 5279628199099811694, guid: d4ce5a3360f2ea944baff3b356e1a2bc,
        type: 3}
      propertyPath: m_LocalRotation.y
      value: -0
      objectReference: {fileID: 0}
    - target: {fileID: 5279628199099811694, guid: d4ce5a3360f2ea944baff3b356e1a2bc,
        type: 3}
      propertyPath: m_LocalRotation.z
      value: -0
      objectReference: {fileID: 0}
    - target: {fileID: 5279628199099811694, guid: d4ce5a3360f2ea944baff3b356e1a2bc,
        type: 3}
      propertyPath: m_LocalRotation.w
      value: 1
      objectReference: {fileID: 0}
    - target: {fileID: 5279628199099811694, guid: d4ce5a3360f2ea944baff3b356e1a2bc,
        type: 3}
      propertyPath: m_RootOrder
      value: 9
      objectReference: {fileID: 0}
    - target: {fileID: 5279628199099811694, guid: d4ce5a3360f2ea944baff3b356e1a2bc,
        type: 3}
      propertyPath: m_LocalEulerAnglesHint.x
      value: 0
      objectReference: {fileID: 0}
    - target: {fileID: 5279628199099811694, guid: d4ce5a3360f2ea944baff3b356e1a2bc,
        type: 3}
      propertyPath: m_LocalEulerAnglesHint.y
      value: 0
      objectReference: {fileID: 0}
    - target: {fileID: 5279628199099811694, guid: d4ce5a3360f2ea944baff3b356e1a2bc,
        type: 3}
      propertyPath: m_LocalEulerAnglesHint.z
      value: 0
      objectReference: {fileID: 0}
    - target: {fileID: 4977064713511516559, guid: d4ce5a3360f2ea944baff3b356e1a2bc,
        type: 3}
      propertyPath: m_LocalPosition.x
      value: 0
      objectReference: {fileID: 0}
    - target: {fileID: 4977064713511516559, guid: d4ce5a3360f2ea944baff3b356e1a2bc,
        type: 3}
      propertyPath: m_LocalPosition.y
      value: 0
      objectReference: {fileID: 0}
    - target: {fileID: 4977064713511516559, guid: d4ce5a3360f2ea944baff3b356e1a2bc,
        type: 3}
      propertyPath: m_LocalPosition.z
      value: 0
      objectReference: {fileID: 0}
    - target: {fileID: 4789341586180607118, guid: d4ce5a3360f2ea944baff3b356e1a2bc,
        type: 3}
      propertyPath: m_LocalPosition.x
      value: 0
      objectReference: {fileID: 0}
    - target: {fileID: 4789341586180607118, guid: d4ce5a3360f2ea944baff3b356e1a2bc,
        type: 3}
      propertyPath: m_LocalPosition.y
      value: 0.441
      objectReference: {fileID: 0}
    - target: {fileID: 4789341586180607118, guid: d4ce5a3360f2ea944baff3b356e1a2bc,
        type: 3}
      propertyPath: m_LocalPosition.z
      value: 0
      objectReference: {fileID: 0}
    m_RemovedComponents: []
  m_SourcePrefab: {fileID: 100100000, guid: d4ce5a3360f2ea944baff3b356e1a2bc, type: 3}
--- !u!1001 &1587210707
PrefabInstance:
  m_ObjectHideFlags: 0
  serializedVersion: 2
  m_Modification:
    m_TransformParent: {fileID: 0}
    m_Modifications:
    - target: {fileID: 5350891459865436264, guid: d4ce5a3360f2ea944baff3b356e1a2bc,
        type: 3}
      propertyPath: m_Name
      value: HoleComplete (7)
      objectReference: {fileID: 0}
    - target: {fileID: 5279628199099811694, guid: d4ce5a3360f2ea944baff3b356e1a2bc,
        type: 3}
      propertyPath: m_LocalPosition.x
      value: 8
      objectReference: {fileID: 0}
    - target: {fileID: 5279628199099811694, guid: d4ce5a3360f2ea944baff3b356e1a2bc,
        type: 3}
      propertyPath: m_LocalPosition.y
      value: 2
      objectReference: {fileID: 0}
    - target: {fileID: 5279628199099811694, guid: d4ce5a3360f2ea944baff3b356e1a2bc,
        type: 3}
      propertyPath: m_LocalPosition.z
      value: 0
      objectReference: {fileID: 0}
    - target: {fileID: 5279628199099811694, guid: d4ce5a3360f2ea944baff3b356e1a2bc,
        type: 3}
      propertyPath: m_LocalRotation.x
      value: -0
      objectReference: {fileID: 0}
    - target: {fileID: 5279628199099811694, guid: d4ce5a3360f2ea944baff3b356e1a2bc,
        type: 3}
      propertyPath: m_LocalRotation.y
      value: -0
      objectReference: {fileID: 0}
    - target: {fileID: 5279628199099811694, guid: d4ce5a3360f2ea944baff3b356e1a2bc,
        type: 3}
      propertyPath: m_LocalRotation.z
      value: -0
      objectReference: {fileID: 0}
    - target: {fileID: 5279628199099811694, guid: d4ce5a3360f2ea944baff3b356e1a2bc,
        type: 3}
      propertyPath: m_LocalRotation.w
      value: 1
      objectReference: {fileID: 0}
    - target: {fileID: 5279628199099811694, guid: d4ce5a3360f2ea944baff3b356e1a2bc,
        type: 3}
      propertyPath: m_RootOrder
      value: 8
      objectReference: {fileID: 0}
    - target: {fileID: 5279628199099811694, guid: d4ce5a3360f2ea944baff3b356e1a2bc,
        type: 3}
      propertyPath: m_LocalEulerAnglesHint.x
      value: 0
      objectReference: {fileID: 0}
    - target: {fileID: 5279628199099811694, guid: d4ce5a3360f2ea944baff3b356e1a2bc,
        type: 3}
      propertyPath: m_LocalEulerAnglesHint.y
      value: 0
      objectReference: {fileID: 0}
    - target: {fileID: 5279628199099811694, guid: d4ce5a3360f2ea944baff3b356e1a2bc,
        type: 3}
      propertyPath: m_LocalEulerAnglesHint.z
      value: 0
      objectReference: {fileID: 0}
    - target: {fileID: 4977064713511516559, guid: d4ce5a3360f2ea944baff3b356e1a2bc,
        type: 3}
      propertyPath: m_LocalPosition.x
      value: 0
      objectReference: {fileID: 0}
    - target: {fileID: 4977064713511516559, guid: d4ce5a3360f2ea944baff3b356e1a2bc,
        type: 3}
      propertyPath: m_LocalPosition.y
      value: 0
      objectReference: {fileID: 0}
    - target: {fileID: 4977064713511516559, guid: d4ce5a3360f2ea944baff3b356e1a2bc,
        type: 3}
      propertyPath: m_LocalPosition.z
      value: 0
      objectReference: {fileID: 0}
    - target: {fileID: 4789341586180607118, guid: d4ce5a3360f2ea944baff3b356e1a2bc,
        type: 3}
      propertyPath: m_LocalPosition.x
      value: 0
      objectReference: {fileID: 0}
    - target: {fileID: 4789341586180607118, guid: d4ce5a3360f2ea944baff3b356e1a2bc,
        type: 3}
      propertyPath: m_LocalPosition.y
      value: 0.441
      objectReference: {fileID: 0}
    - target: {fileID: 4789341586180607118, guid: d4ce5a3360f2ea944baff3b356e1a2bc,
        type: 3}
      propertyPath: m_LocalPosition.z
      value: 0
      objectReference: {fileID: 0}
    m_RemovedComponents: []
  m_SourcePrefab: {fileID: 100100000, guid: d4ce5a3360f2ea944baff3b356e1a2bc, type: 3}
--- !u!1001 &2068382705
PrefabInstance:
  m_ObjectHideFlags: 0
  serializedVersion: 2
  m_Modification:
    m_TransformParent: {fileID: 0}
    m_Modifications:
    - target: {fileID: 5350891459865436264, guid: d4ce5a3360f2ea944baff3b356e1a2bc,
        type: 3}
      propertyPath: m_Name
      value: HoleComplete (1)
      objectReference: {fileID: 0}
    - target: {fileID: 5279628199099811694, guid: d4ce5a3360f2ea944baff3b356e1a2bc,
        type: 3}
      propertyPath: m_LocalPosition.x
      value: 4
      objectReference: {fileID: 0}
    - target: {fileID: 5279628199099811694, guid: d4ce5a3360f2ea944baff3b356e1a2bc,
        type: 3}
      propertyPath: m_LocalPosition.y
      value: 4
      objectReference: {fileID: 0}
    - target: {fileID: 5279628199099811694, guid: d4ce5a3360f2ea944baff3b356e1a2bc,
        type: 3}
      propertyPath: m_LocalPosition.z
      value: 1.5
      objectReference: {fileID: 0}
    - target: {fileID: 5279628199099811694, guid: d4ce5a3360f2ea944baff3b356e1a2bc,
        type: 3}
      propertyPath: m_LocalRotation.x
      value: -0
      objectReference: {fileID: 0}
    - target: {fileID: 5279628199099811694, guid: d4ce5a3360f2ea944baff3b356e1a2bc,
        type: 3}
      propertyPath: m_LocalRotation.y
      value: -0
      objectReference: {fileID: 0}
    - target: {fileID: 5279628199099811694, guid: d4ce5a3360f2ea944baff3b356e1a2bc,
        type: 3}
      propertyPath: m_LocalRotation.z
      value: -0
      objectReference: {fileID: 0}
    - target: {fileID: 5279628199099811694, guid: d4ce5a3360f2ea944baff3b356e1a2bc,
        type: 3}
      propertyPath: m_LocalRotation.w
      value: 1
      objectReference: {fileID: 0}
    - target: {fileID: 5279628199099811694, guid: d4ce5a3360f2ea944baff3b356e1a2bc,
        type: 3}
      propertyPath: m_RootOrder
      value: 2
      objectReference: {fileID: 0}
    - target: {fileID: 5279628199099811694, guid: d4ce5a3360f2ea944baff3b356e1a2bc,
        type: 3}
      propertyPath: m_LocalEulerAnglesHint.x
      value: 0
      objectReference: {fileID: 0}
    - target: {fileID: 5279628199099811694, guid: d4ce5a3360f2ea944baff3b356e1a2bc,
        type: 3}
      propertyPath: m_LocalEulerAnglesHint.y
      value: 0
      objectReference: {fileID: 0}
    - target: {fileID: 5279628199099811694, guid: d4ce5a3360f2ea944baff3b356e1a2bc,
        type: 3}
      propertyPath: m_LocalEulerAnglesHint.z
      value: 0
      objectReference: {fileID: 0}
    - target: {fileID: 4977064713511516559, guid: d4ce5a3360f2ea944baff3b356e1a2bc,
        type: 3}
      propertyPath: m_LocalPosition.x
      value: 0
      objectReference: {fileID: 0}
    - target: {fileID: 4977064713511516559, guid: d4ce5a3360f2ea944baff3b356e1a2bc,
        type: 3}
      propertyPath: m_LocalPosition.y
      value: 0
      objectReference: {fileID: 0}
    - target: {fileID: 4977064713511516559, guid: d4ce5a3360f2ea944baff3b356e1a2bc,
        type: 3}
      propertyPath: m_LocalPosition.z
      value: 0
      objectReference: {fileID: 0}
    - target: {fileID: 4789341586180607118, guid: d4ce5a3360f2ea944baff3b356e1a2bc,
        type: 3}
      propertyPath: m_LocalPosition.x
      value: 0
      objectReference: {fileID: 0}
    - target: {fileID: 4789341586180607118, guid: d4ce5a3360f2ea944baff3b356e1a2bc,
        type: 3}
      propertyPath: m_LocalPosition.y
      value: 0.441
      objectReference: {fileID: 0}
    - target: {fileID: 4789341586180607118, guid: d4ce5a3360f2ea944baff3b356e1a2bc,
        type: 3}
      propertyPath: m_LocalPosition.z
      value: 0
      objectReference: {fileID: 0}
    m_RemovedComponents: []
  m_SourcePrefab: {fileID: 100100000, guid: d4ce5a3360f2ea944baff3b356e1a2bc, type: 3}
